{
"fla": [
{
"id": 109482,
"common_name": "Common nettle",
"slug": "urtica-dioica",
"scientific_name": "Urtica dioica",
"year": 1753,
"bibliography": "Sp. Pl.: 984 (1753)",
"author": "L.",
"status": "accepted",
"rank": "species",
"family_common_name": null,
"genus_id": 5550,
"image_url": "https://bs.plantnet.org/image/o/9db58cbb3538a6b77384f972971d51869228e545",
"synonyms": [
"Urtica dioica var. vulgaris",
"Urtica dioica var. ramosa",
"Urtica dioica subsp. eudioica"
],
"genus": "Urtica",
"family": "Urticaceae",
"links": {
"self": "/api/v1/species/urtica-dioica",
"plant": "/api/v1/plants/urtica-dioica",
"genus": "/api/v1/genus/urtica"
}
},
{
"id": 227114,
"common_name": "Barnyard grass",
"slug": "dactylis-glomerata",
"scientific_name": "Dactylis glomerata",
"year": 1753,
"bibliography": "Sp. Pl.: 71 (1753)",
"author": "L.",
"status": "accepted",
"rank": "species",
"family_common_name": null,
"genus_id": 10915,
"image_url": "https://bs.plantnet.org/image/o/f84a7d4fc2e627ccd451f568479b1932c2b2d900",
"synonyms": [
"Bromus glomeratus",
"Koeleria dactylis",
"Festuca glomerata",
"Trachypoa vulgaris",
"Phalaris glomerata",
"Limnetis glomerata"
],
"genus": "Dactylis",
"family": "Poaceae",
"links": {
"self": "/api/v1/species/dactylis-glomerata",
"plant": "/api/v1/plants/dactylis-glomerata",
"genus": "/api/v1/genus/dactylis"
}
},
{
"id": 128860,
"common_name": "Narrow-leaf plantain",
"slug": "plantago-lanceolata",
"scientific_name": "Plantago lanceolata",
"year": 1753,
"bibliography": "Sp. Pl.: 113 (1753)",
"author": "L.",
"status": "accepted",
"rank": "species",
"family_common_name": null,
"genus_id": 6597,
"image_url": "https://bs.plantnet.org/image/o/f8d7d6fe52e36d04f5ad1fc03f46f604d5c3cc43",
"synonyms": [
"Plantago intermedia",
"Plantago lanceolata var. communis",
"Plantago lanceifolia",
"Arnoglossum lanceolatum var. ramosum",
"Plantago lanceolata f. eriophora",
"Plantago lanceolata var. dubia",
"Plantago lanceolata f. pleiocephala",
"Plantago lanceolata var. eriophylla",
"Plantago lanceolata var. mediterranea",
"Plantago glareosa",
"Plantago pseudopatagonica",
"Plantago lanceolata subvar. eriophora",
"Plantago dalmatica",
"Plantago lanceolata var. bakeri",
"Plantago linkii",
"Plantago lanceolata var. angustifolia",
"Plantago sylvatica",
"Plantago orientalis var. lycia",
"Plantago lanceolata var. montana",
"Plantago lanceolata subsp. eriophora",
"Plantago lanceolata f. coarctata",
"Plantago nutans",
"Plantago lanceolata subvar. lasiophylla",
"Plantago lanceolata var. eriophora",
"Plantago dubia",
"Plantago ambigua",
"Plantago eriophora",
"Plantago variabilis",
"Plantago hungarica",
"Plantago yezomaritima",
"Plantago lanceolata var. graminifolia",
"Plantago elata",
"Plantago schottii",
"Plantago timbalii",
"Plantago lanceolata var. capitellata",
"Plantago lanceolata subvar. euryphylla",
"Plantago lanceolata f. lanuginosa",
"Plantago abyssinica",
"Plantago lanceolata subsp. lanuginosa",
"Plantago lanceolata var. minima",
"Plantago irrigua",
"Plantago lanceolata var. latifolia",
"Plantago attenuata",
"Plantago nigricans",
"Arnoglossum lanceolatum var. trinervium",
"Plantago lanuginosa",
"Plantago lanceolata var. sphaerostachya",
"Plantago japonica var. yezomaritima",
"Plantago lanceolata subvar. sphaerostachya",
"Plantago lanceolata var. contigua",
"Plantago leiopetala",
"Plantago lanceolata var. timbalii",
"Plantago lanceolata f. macrostachya",
"Plantago lanceolata var. sylvatica",
"Plantago lanceolata subvar. eurhiza",
"Plantago preslii",
"Lagopus lanceolatus",
"Plantago byzantina",
"Plantago fontis-curvae",
"Plantago media var. prolifera",
"Plantago flexuosa",
"Plantago lanceolata var. minor",
"Plantago lanceolata f. composita",
"Plantago lanceolata var. alpina",
"Plantago azorica",
"Plantago lanceolata var. erecta",
"Plantago sphaerostachys",
"Plantago kurdica",
"Plantago orientalis",
"Arnoglossum lanceolatum var. roseum",
"Plantago lanceolata var. capitata",
"Plantago major f. yezomaritima",
"Plantago lanceolata f. bifurca",
"Plantago mediterranea",
"Plantago lanceolata var. multinervia",
"Plantago glauca",
"Plantago contorta",
"Plantago lanceolata subsp. capitata",
"Plantago sphaerostachya",
"Plantago lanceolata var. polystachia",
"Plantago lanceolata var. maritima",
"Lagopus timbali",
"Arnoglossum lanceolatum",
"Plantago glabriflora",
"Plantago longistipes",
"Plantago succisa",
"Plantago trinervis",
"Plantago capitata",
"Plantago lanceolata subsp. altissima",
"Plantago longiscapa",
"Plantago lanceolata var. lanuginosa"
],
"genus": "Plantago",
"family": "Plantaginaceae",
"links": {
"self": "/api/v1/species/plantago-lanceolata",
"plant": "/api/v1/plants/plantago-lanceolata",
"genus": "/api/v1/genus/plantago"
}
},
{
"id": 11971,
"common_name": "Milfoil",
"slug": "achillea-millefolium",
"scientific_name": "Achillea millefolium",
"year": 1753,
"bibliography": "Sp. Pl.: 899 (1753)",
"author": "L.",
"status": "accepted",
"rank": "species",
"family_common_name": "Aster family",
"genus_id": 250,
"image_url": "https://bs.plantnet.org/image/o/d788a757cd8bac8c3b1378a970c078a7a937a174",
"synonyms": [
"Santolina millefolium",
"Achillea millefolium var. nobilior",
"Achillea tenuifolia",
"Alitubus millefolium",
"Achillea millefolium f. perrubriflora",
"Chamaemelum millefolium",
"Achillea tanacetifolia var. dentifera"
],
"genus": "Achillea",
"family": "Asteraceae",
"links": {
"self": "/api/v1/species/achillea-millefolium",
"plant": "/api/v1/plants/achillea-millefolium",
"genus": "/api/v1/genus/achillea"
}
},
{
"id": 208738,
"common_name": "Soft rush",
"slug": "juncus-effusus",
"scientific_name": "Juncus effusus",
"year": 1753,
"bibliography": "Sp. Pl.: 326 (1753)",
"author": "L.",
"status": "accepted",
"rank": "species",
"family_common_name": null,
"genus_id": 6140,
"image_url": "https://d2seqvvyy3b8p2.cloudfront.net/31545c7b5c65236a5d7f28ca040ee058.jpg",
"synonyms": [
"Juncus laevis var. effusus",
"Juncus effusus var. oblongicarpus",
"Juncus communis",
"Juncus communis var. effusus",
"Juncus conglomeratus var. effusus",
"Juncus laevis"
],
"genus": "Juncus",
"family": "Juncaceae",
"links": {
"self": "/api/v1/species/juncus-effusus",
"plant": "/api/v1/plants/juncus-effusus",
"genus": "/api/v1/genus/juncus"
}
},
{
"id": 233333,
"common_name": "Ditch reed",
"slug": "phragmites-australis",
"scientific_name": "Phragmites australis",
"year": 1841,
"bibliography": "Nomencl. Bot., ed. 2, 2: 324 (1841)",
"author": "(Cav.) Trin. ex Steud.",
"status": "accepted",
"rank": "species",
"family_common_name": null,
"genus_id": 11255,
"image_url": "https://bs.plantnet.org/image/o/8a74932da925aea8224f7929bf701806abec0c84",
"synonyms": [
"Phalaris communis var. rubriculmis",
"Arundo phragmites var. tenella",
"Phargmites communis var. tenella",
"Phragmites communis var. innubus",
"Phragmites communis f. stolonifera",
"Phragmites communis f. flavescens",
"Phragmites communis f. subuniflora",
"Phragmites communis f. coarctata"
],
"genus": "Phragmites",
"family": "Poaceae",
"links": {
"self": "/api/v1/species/phragmites-australis",
"plant": "/api/v1/plants/phragmites-australis",
"genus": "/api/v1/genus/phragmites"
}
},
{
"id": 259042,
"common_name": "Gill-over-the-ground",
"slug": "glechoma-hederacea",
"scientific_name": "Glechoma hederacea",
"year": 1753,
"bibliography": "Sp. Pl.: 578 (1753)",
"author": "L.",
"status": "accepted",
"rank": "species",
"family_common_name": null,
"genus_id": 12046,
"image_url": "https://bs.plantnet.org/image/o/27d4a32d5f7c7c6b1748904f852d3e6d561a17cd",
"synonyms": [
"Glechoma heterophylla",
"Glechoma hederacea var. magna",
"Glechoma micrantha",
"Glechoma hederacea var. grandiflora",
"Glechoma hederacea var. breviflora",
"Glechoma rigida",
"Calamintha hederacea",
"Hedera terrestris",
"Glechoma hederacea f. rosea",
"Glechoma intermedia",
"Glechoma lobulata",
"Glechoma hederacea var. umbrosa",
"Glechoma hederacea var. major",
"Glechoma hederacea var. montana",
"Nepeta rigida",
"Glechoma hederacea var. grandifolia",
"Nepeta hederacea f. albovariegata",
"Glechoma longicaulis",
"Glechoma hederacea subsp. serbica",
"Glechoma serbica",
"Chamaecissos hederaceus",
"Glechoma hederacea var. micrantha",
"Glechoma hederacea variegata",
"Glechoma magna",
"Glechoma hederacea f. verticillata",
"Chamaeclema hederacea",
"Glechoma hederacea subsp. glabriuscula",
"Glechoma hederacea var. parvifolia",
"Glechoma repens",
"Glechonion hederaceum",
"Glechoma hederacea var. humilior",
"Nepeta glechoma",
"Glechoma bulgarica",
"Glechoma rotundifolia",
"Glechoma borealis",
"Glechoma hederacea brevipetiolatum",
"Glechoma hederacea villosa",
"Glechoma hederacea var. heterophylla",
"Glechoma hederacea microcalyx",
"Nepeta hederacea",
"Nepeta glechoma var. hirsuta"
],
"genus": "Glechoma",
"family": "Lamiaceae",
"links": {
"self": "/api/v1/species/glechoma-hederacea",
"plant": "/api/v1/plants/glechoma-hederacea",
"genus": "/api/v1/genus/glechoma"
}
},
{
"id": 224250,
"common_name": "Spreading bent",
"slug": "agrostis-stolonifera",
"scientific_name": "Agrostis stolonifera",
"year": 1753,
"bibliography": "Sp. Pl.: 62 (1753)",
"author": "L.",
"status": "accepted",
"rank": "species",
"family_common_name": null,
"genus_id": 10725,
"image_url": "https://d2seqvvyy3b8p2.cloudfront.net/c0732578fcfacf7f46e7b0dac3b4f3e4.jpg",
"synonyms": [
"Agrostis mutabilis",
"Agrostis depressa",
"Agrostis alba var. narbonensis",
"Agrostis sibthorpii",
"Agrostis alba var. laevigata",
"Sporobolus gaudichaudii",
"Agrostis alba var. gracilis",
"Agrostis ambigua",
"Agrostis alba var. compacta",
"Agrostis alba var. karsensis",
"Agrostis stolonifera var. patula",
"Agrostis alba var. straminea",
"Agrostis sinaica",
"Agrostis alba f. natans",
"Agrostis stolonizans",
"Sporobolus gaditanus",
"Agrostis stolonifera var. aristata",
"Milium stoloniferum",
"Agrostis stolonifera f. gracilis",
"Agrostis alba var. pallida",
"Vilfa decumbens",
"Agrostis alba subsp. straminea",
"Agrostis stolonifera var. viridula",
"Agrostis nemoralis",
"Agrostis multicaulis",
"Agrostis palustris var. stolonifera",
"Agrostis alba var. scabriglumis",
"Agrostis stolonifera var. pseudopungens",
"Agrostis stolonifera subvar. salina",
"Agrostis alba var. decumbens",
"Agrostis stolonifera subsp. filifolia",
"Agrostis alba var. prorepens",
"Agrostis alba var. natans",
"Agrostis stolonifera var. narbonensis",
"Agrostis jacutica",
"Agrostis stolonifera var. densiflora",
"Agrostis brevis",
"Agrostis alba f. substerilis",
"Agrostis scabriglumis",
"Agrostis bryoides",
"Agrostis straminea",
"Agrostis alba var. pseudopungens",
"Agrostis palustris",
"Agrostis alba subsp. gaditana",
"Agrostis stolonifera f. humilis",
"Agrostis dulcis",
"Agrostis densissima",
"Agrostis alba var. lutescens",
"Agrostis exarata var. stolonifera",
"Agrostis stolonifera var. subchlorantha",
"Agrostis neglecta",
"Agrostis alba var. albida",
"Agrostis transcaspica",
"Agrostis candollei",
"Agrostis stolonifera var. nievrensis",
"Agrostis stolonifera f. caespitosa",
"Agrostis stolonifera var. compacta",
"Agrostis alba var. glaucescens",
"Agrostis alba var. subrepens",
"Agrostis stolonifera f. patula",
"Agrostis vulgaris var. frondosa",
"Agrostis alba var. subjungens",
"Agrostis alba var. densiflora",
"Agrostis alba var. foucaudii",
"Vilfa dulcis",
"Agrostis zerovii",
"Agrostis eliasii",
"Agrostis filifolia",
"Vilfa stolonifera var. marina",
"Agrostis stolonifera subsp. maritima",
"Vilfa patula",
"Agrostis reuteri subsp. scabriglumis",
"Agrostis pseudoalba",
"Agrostis stolonifera subsp. gaditana",
"Agrostis stolonifera var. scabriglumis",
"Agrostis karsensis",
"Agrostis stolonifera subvar. malcuitiana",
"Agrostis stolonifera subsp. transcaspica",
"Agrostis sibirica",
"Agrostis spicigera",
"Agrostis alba subvar. decumbens",
"Agrostis stolonifera subvar. arenaria",
"Agrostis stolonifera f. decumbens",
"Agrostis stolonifera f. pontica",
"Agrostis albida",
"Agrostis vulgaris var. stolonifera",
"Agrostis stolonifera subsp. karsensis",
"Agrostis scabrida",
"Agrostis stolonifera var. maritima",
"Agrostis alba var. palustris",
"Agrostis alba f. maritima",
"Agrostis alba subsp. patula",
"Agrostis stolonifera var. pumila",
"Agrostis stolonifera var. decumbens",
"Agrostis stolonifera var. bottnica",
"Vilfa glaucescens",
"Milium vulgare var. stoloniferum",
"Agrostis stolonifera var. straminea",
"Agrostis alba f. amethystina",
"Agrostis maritima var. subrepens",
"Agrostis stolonifera var. malcuitiana",
"Agrostis glaucescens",
"Agrostis stolonifera subsp. albida",
"Agrostis stolonifera subsp. stolonizans",
"Agrostis stolonifera var. calcicola",
"Agrostis signata var. varia",
"Agrostis alba subsp. scabrida",
"Agrostis stolonifera f. oligantha",
"Agrostis stolonifera subsp. scabriglumis",
"Agrostis polymorpha var. palustris",
"Agrostis transcaspica f. violacea",
"Agrostis stolonifera f. flavida",
"Agrostis lapponica",
"Agrostis alba var. varia",
"Agrostis alba subsp. maritima",
"Vilfa stolonifera var. brevis",
"Agrostis stolonifera var. dulcis",
"Agrostis alba subsp. pallens",
"Agrostis insignita",
"Agrostis prostrata",
"Agrostis alba var. stolonifera",
"Agrostis aristulata",
"Agrostis tenuis var. stolonifera",
"Agrostis stolonifera var. flagellaris",
"Agrostis signata var. caespitosa",
"Apera procumbens",
"Agrostis stolonifera f. subchlorantha",
"Agrostis alba var. maritima",
"Agrostis stolonifera f. amethystina",
"Agrostis macrantha",
"Agrostis stolonifera var. subaristata",
"Agrostis stolonifera subsp. palustris",
"Agrostis alba subsp. glaucescens",
"Agrostis polymorpha var. stolonifera",
"Agrostis bodaibensis",
"Agrostis stolonifera var. marina",
"Vilfa stolonifera",
"Agrostis alba subsp. stolonizans",
"Agrostis alba var. armena",
"Agrostis stolonifera f. flava",
"Agrostis stolonifera var. palustris",
"Agrostis stolonifera subsp. scabrida",
"Agrostis stolonifera var. filifolia",
"Agrostis alba var. conferta",
"Agrostis stolonifera var. latifolia",
"Agrostis maritima var. clementei",
"Agrostis diluta",
"Agrostis stolonifera var. laevigata",
"Agrostis stolonifera f. substerilis",
"Agrostis alba subsp. salina",
"Agrostis signata var. flavida",
"Agrostis procumbens",
"Agrostis signata var. decumbens",
"Agrostis alba subsp. filifolia",
"Agrostis alba var. salina",
"Agrostis difficilis",
"Agrostis sokolovskajae",
"Agrostis maritima subsp. clementei",
"Vilfa stolonifera var. maritima",
"Agrostis kitaibelii",
"Vilfa gaditana",
"Milium vulgare var. stolonifera",
"Agrostis stolonifera f. lutescens",
"Agrostis maritima var. pseudopungens",
"Agrostis vivipara",
"Agrostis stolonifera var. tenuis",
"Agrostis reptans",
"Agrostis flava",
"Agrostis alba subsp. scabriglumis",
"Sporobolus virginicus var. gaditanus",
"Agrostis alba var. condensata",
"Agrostis stolonifera var. effusa",
"Agrostis salina",
"Agrostis alba f. densissima",
"Agrostis maritima subsp. pseudopungens",
"Agrostis signata",
"Decandolia stolonifera",
"Agrostis stolonifera f. natans",
"Agrostis vulgaris var. prorepens",
"Agrostis stolonifera var. varia",
"Agrostis alba subsp. decumbens",
"Vilfa gaudichaudii",
"Agrostis stolonifera var. prorepens",
"Agrostis stolonifera subsp. sokolovskajae",
"Agrostis turiensis",
"Agrostis langei",
"Agrostis pseudopungens",
"Agrostis alba var. clementei",
"Agrostis virletii",
"Agrostis stolonifera var. angustifolia",
"Agrostis signata var. prorepens",
"Agrostis alba var. colorata",
"Agrostis patula",
"Agrostis welwitschii",
"Agrostis capillaris var. stolonifera",
"Vilfa maritima",
"Agrostis adscendens",
"Apera palustris",
"Agrostis valentina",
"Agrostis stolonifera subsp. straminea"
],
"genus": "Agrostis",
"family": "Poaceae",
"links": {
"self": "/api/v1/species/agrostis-stolonifera",
"plant": "/api/v1/plants/agrostis-stolonifera",
"genus": "/api/v1/genus/agrostis"
}
},
{
"id": 128843,
"common_name": "Common plantain",
"slug": "plantago-major",
"scientific_name": "Plantago major",
"year": 1753,
"bibliography": "Sp. Pl.: 112 (1753)",
"author": "L.",
"status": "accepted",
"rank": "species",
"family_common_name": null,
"genus_id": 6597,
"image_url": "https://bs.plantnet.org/image/o/75b98160f0aff037525320c1e0f165994499f2c3",
"synonyms": [
"Plantago major subvar. pilosula",
"Plantago major subvar. contracta",
"Plantago major var. megastachya"
],
"genus": "Plantago",
"family": "Plantaginaceae",
"links": {
"self": "/api/v1/species/plantago-major",
"plant": "/api/v1/plants/plantago-major",
"genus": "/api/v1/genus/plantago"
}
},
{
"id": 257909,
"common_name": "Cleavers",
"slug": "galium-aparine",
"scientific_name": "Galium aparine",
"year": 1753,
"bibliography": "Sp. Pl.: 108 (1753)",
"author": "L.",
"status": "accepted",
"rank": "species",
"family_common_name": null,
"genus_id": 4173,
"image_url": "https://bs.plantnet.org/image/o/a889db2f581d38b0780bc0ee66549b1583a1d4f4",
"synonyms": [
"Galium larecajense",
"Galium aparine var. verum",
"Galium australe",
"Galium pseudoaparine",
"Galium aparine var. pseudoaparine",
"Galium aparine f. latifolium",
"Galion aparinum",
"Galium aparine var. thalassicum",
"Rubia aparine",
"Galium borbonicum var. makianum",
"Galium aparine var. marinum",
"Galium tenerrimum",
"Galium aparine f. angustifolium",
"Asterophyllum aparine",
"Aparine vulgaris",
"Galium aparine var. fructibushispidis",
"Galium aparine var. intermedium",
"Galium aparine f. intermedium",
"Aparine hispida",
"Galium chonosense",
"Galium aculeatissimum",
"Galium aparine var. agreste",
"Galium segetum",
"Asperula aparine var. aparine",
"Galium aparine var. hirsutum",
"Galium charoides",
"Galium aparine var. microphyllum",
"Galium aparine var. subglabrum",
"Galium horridum",
"Galium aparine subsp. agreste",
"Galium lappaceum",
"Galium chilense",
"Crucianella purpurea",
"Asperula aparine",
"Galium uliginosum",
"Galium parviflorum",
"Galium intermedium",
"Galium asperum"
],
"genus": "Galium",
"family": "Rubiaceae",
"links": {
"self": "/api/v1/species/galium-aparine",
"plant": "/api/v1/plants/galium-aparine",
"genus": "/api/v1/genus/galium"
}
},
{
"id": 74232,
"common_name": "Heal-all",
"slug": "prunella-vulgaris",
"scientific_name": "Prunella vulgaris",
"year": 1753,
"bibliography": "Sp. Pl.: 600 (1753)",
"author": "L.",
"status": "accepted",
"rank": "species",
"family_common_name": null,
"genus_id": 3450,
"image_url": "https://bs.plantnet.org/image/o/b46f4000f9bec28dc6d74d501ddc15445e7f7667",
"synonyms": [
"Prunella vulgaris subsp. parviflora",
"Prunella vulgaris var. nemoralis"
],
"genus": "Prunella",
"family": "Lamiaceae",
"links": {
"self": "/api/v1/species/prunella-vulgaris",
"plant": "/api/v1/plants/prunella-vulgaris",
"genus": "/api/v1/genus/prunella"
}
},
{
"id": 231147,
"common_name": "Perennial ryegrass",
"slug": "lolium-perenne",
"scientific_name": "Lolium perenne",
"year": 1753,
"bibliography": "Sp. pl. 1:83.  1753",
"author": "L.",
"status": "accepted",
"rank": "species",
"family_common_name": null,
"genus_id": 11116,
"image_url": "https://d2seqvvyy3b8p2.cloudfront.net/4d7c83316b0b96ae329c73f59dacab0e.jpg",
"synonyms": [
"Hordeum compressum",
"Lolium vulgare",
"Lolium rosetlanum",
"Lolium perenne var. spicatum",
"Lolium perenne var. angustifolium",
"Lolium perenne var. compressum",
"Lolium perenne var. stoloniferum",
"Lolium perenne var. vulgare",
"Lolium trabutii",
"Festuca perennis",
"Lolium perenne f. compositum",
"Lolium perenne f. tenue",
"Lolium perenne var. viviparum",
"Lolium perenne subsp. ramosum",
"Lolium perenne var. secundum",
"Lolium glumosum",
"Lolium perenne var. orgiale",
"Lolium perenne var. brasilianum",
"Lolium cechicum",
"Lolium compressum",
"Lolium pseudoitalicum",
"Lolium jechelianum",
"Lolium perenne subsp. stoloniferum",
"Lolium perenne var. monstrosum",
"Lolium perenne var. furcatum",
"Lolium perenne var. pacyanum",
"Lolium strictum var. compressum",
"Lolium perenne var. ramosum",
"Lolium perenne var. condensatum",
"Lolium perenne var. sphaerostachuym",
"Lolium perenne var. whitworthiense",
"Lolium perenne var. geniculatum",
"Lolium cristatum",
"Lolium marschallii",
"Lolium repens",
"Lolium perenne var. purpurascens",
"Lolium perenne subsp. compositum",
"Lolium perenne var. longiglume",
"Lolium perenne var. auriculatum",
"Lolium perenne f. microstachyum",
"Lolium montevidense",
"Lolium perenne f. polyanthum",
"Lolium perenne var. paleaceum",
"Lolium perenne var. pacyi",
"Lolium perenne var. confertum",
"Lolium perenne var. humile",
"Lolium aechicum",
"Lolium perenne var. tenue",
"Lolium perenne var. paniculatum",
"Lolium agreste",
"Lolium gmelinii",
"Lolium perenne subsp. cristatum",
"Lolium tenue",
"Lolium latum",
"Lolium perenne var. pauciflorum",
"Lolium perenne var. spurium",
"Lolium perenne subsp. trabutii",
"Lolium perenne var. cristatum",
"Lolium perenne var. stickneiensis",
"Lolium rigidum var. compressum",
"Lolium perenne var. scabriculme",
"Lolium perenne subsp. tenue",
"Lolium perenne var. russellianum",
"Lolium perenne var. aristulatum",
"Lolium perenne var. polyanthum",
"Lolium brasilianum",
"Lolium felix",
"Lolium halleri",
"Lolium perenne var. commune"
],
"genus": "Lolium",
"family": "Poaceae",
"links": {
"self": "/api/v1/species/lolium-perenne",
"plant": "/api/v1/plants/lolium-perenne",
"genus": "/api/v1/genus/lolium"
}
},
{
"id": 19889,
"common_name": "Black thistle",
"slug": "cirsium-vulgare",
"scientific_name": "Cirsium vulgare",
"year": 2006,
"bibliography": "Fl. Napol. 5: 209",
"author": "(Savi) Ten.",
"status": "accepted",
"rank": "species",
"family_common_name": "Aster family",
"genus_id": 31,
"image_url": "https://bs.plantnet.org/image/o/6de5f109347849554b9aa4dc16ad09721b0ba93c",
"synonyms": [
"Carduus vulgaris",
"Cirsium lanceolatum var. albiflorum",
"Cirsium crinitum var. catalaunicum",
"Cirsium crinitum var. microcephalum",
"Epitrachys vulgaris",
"Cirsium crinitum var. tenuibracteatum",
"Cirsium lanceolatum var. longespinosum",
"Cirsium hawaiensis"
],
"genus": "Cirsium",
"family": "Asteraceae",
"links": {
"self": "/api/v1/species/cirsium-vulgare",
"plant": "/api/v1/plants/cirsium-vulgare",
"genus": "/api/v1/genus/cirsium"
}
},
{
"id": 234009,
"common_name": "Smooth meadow grass",
"slug": "poa-pratensis",
"scientific_name": "Poa pratensis",
"year": 1753,
"bibliography": "Sp. Pl.: 67 (1753)",
"author": "L.",
"status": "accepted",
"rank": "species",
"family_common_name": null,
"genus_id": 11273,
"image_url": "https://bs.plantnet.org/image/o/6e25db3d223a2e7b26a3c762c4861ab5fb9010ac",
"synonyms": [
"Poa pratensis subsp. uberrima",
"Poa pratensis var. smaragdina",
"Poa pratensis f. minor",
"Poa pratensis f. elata",
"Poa pratensis var. albescens",
"Poa pratensis var. major",
"Poa angustifolia subsp. pratensis",
"Poa pratensis f. athroostachya",
"Poa angustifolia var. pratensis",
"Poa pratensis subsp. vulgaris",
"Paneion pratense"
],
"genus": "Poa",
"family": "Poaceae",
"links": {
"self": "/api/v1/species/poa-pratensis",
"plant": "/api/v1/plants/poa-pratensis",
"genus": "/api/v1/genus/poa"
}
},
{
"id": 233606,
"common_name": "Annual bluegrass",
"slug": "poa-annua",
"scientific_name": "Poa annua",
"year": 1753,
"bibliography": "Sp. Pl.: 68 (1753)",
"author": "L.",
"status": "accepted",
"rank": "species",
"family_common_name": null,
"genus_id": 11273,
"image_url": "https://bs.plantnet.org/image/o/c06fa1d2fc227c12fff8d764f9058e1cced33185",
"synonyms": [
"Aira pumila",
"Poa algida",
"Festuca tenuiculmis",
"Poa annua var. arenosa",
"Poa annua var. pilantha",
"Poa hohenackeri",
"Poa annua var. reptans",
"Poa annua var. triflora",
"Poa annua var. rubra",
"Poa annua f. longiglumis",
"Poa annua f. sericea",
"Poa annua var. sericea",
"Poa annua subsp. notabilis",
"Ochlopoa annua subsp. raniglumis",
"Poa annua var. elatior",
"Poa annua var. viridis",
"Poa annua f. reptans",
"Poa annua var. crispa",
"Poa annua subsp. ovalis",
"Ochlopoa pilantha",
"Poa annua var. uliginosa",
"Poa aestivalis",
"Catabrosa pumila",
"Ochlopoa raniglumis",
"Poa annua var. aquatica",
"Poa puberula",
"Poa meyenii",
"Poa annua var. tomentosa",
"Poa annua var. eriolepis",
"Poa annua var. campana",
"Poa pratensis var. hohenackeri",
"Poa annua f. latisquamea",
"Poa annua var. pumila",
"Poa annua var. rigidiuscula",
"Ochlopoa annua subsp. notabilis",
"Ochlopoa annua subsp. pilantha",
"Poa annua var. rivularis",
"Ochlopoa annua",
"Ochlopoa notabilis",
"Poa hansiana",
"Poa annua f. purpurea",
"Poa annua var. ovalis",
"Poa annua var. caespitosa",
"Poa annua var. brevifolia",
"Poa bipollicaris",
"Poa annua var. verna",
"Poa annua subsp. mutabilis",
"Poa annua var. lanuginosa",
"Poa annua var. vivipara",
"Poa annua var. longiglumis",
"Poa annua subsp. pilantha",
"Poa annua f. aquatica",
"Poa annua var. raniglumis",
"Poa ovalis",
"Poa annua var. villosa",
"Poa trivialis var. hohenackeri",
"Poa humilis"
],
"genus": "Poa",
"family": "Poaceae",
"links": {
"self": "/api/v1/species/poa-annua",
"plant": "/api/v1/plants/poa-annua",
"genus": "/api/v1/genus/poa"
}
},
{
"id": 171170,
"common_name": "Carrot",
"slug": "daucus-carota",
"scientific_name": "Daucus carota",
"year": 1753,
"bibliography": "Sp. Pl.: 242 (1753)",
"author": "L.",
"status": "accepted",
"rank": "species",
"family_common_name": "Carrot family",
"genus_id": 8631,
"image_url": "https://bs.plantnet.org/image/o/051631f859a3a433e2954747fa1bdb6bc09a0e66",
"synonyms": [
"Daucus communis subsp. carota",
"Caucalis carota"
],
"genus": "Daucus",
"family": "Apiaceae",
"links": {
"self": "/api/v1/species/daucus-carota",
"plant": "/api/v1/plants/daucus-carota",
"genus": "/api/v1/genus/daucus"
}
},
{
"id": 106735,
"common_name": "Field sorrel",
"slug": "rumex-acetosella",
"scientific_name": "Rumex acetosella",
"year": 1753,
"bibliography": "Sp. Pl.: 338 (1753)",
"author": "L.",
"status": "accepted",
"rank": "species",
"family_common_name": null,
"genus_id": 5298,
"image_url": "https://bs.plantnet.org/image/o/b59a263f63cb80c6332e5f580f27cde38025e452",
"synonyms": [
"Pauladolfia acetosella",
"Lapathum acetosella",
"Acetosella vulgaris",
"Rumex acetosella var. vulgaris",
"Acetosa acetosella",
"Rumex acetosella var. pyrenaicus",
"Rumex infestus",
"Acetosella multifida subsp. vulgaris",
"Acetosella acetosella",
"Rumex acetosella var. viridis",
"Rumex acetosella var. montana"
],
"genus": "Rumex",
"family": "Polygonaceae",
"links": {
"self": "/api/v1/species/rumex-acetosella",
"plant": "/api/v1/plants/rumex-acetosella",
"genus": "/api/v1/genus/rumex"
}
},
{
"id": 106803,
"common_name": "Bitter dock",
"slug": "rumex-obtusifolius",
"scientific_name": "Rumex obtusifolius",
"year": 1753,
"bibliography": "Sp. pl. 1:335.  1753",
"author": "L.",
"status": "accepted",
"rank": "species",
"family_common_name": null,
"genus_id": 5298,
"image_url": "https://bs.plantnet.org/image/o/bff585ae8c8d50ee79cafc9bccce500a4d0ded8b",
"synonyms": [
"Acetosa obtusifolia",
"Rumex obtusifolius var. concolor",
"Lapathum obtusifolium"
],
"genus": "Rumex",
"family": "Polygonaceae",
"links": {
"self": "/api/v1/species/rumex-obtusifolius",
"plant": "/api/v1/plants/rumex-obtusifolius",
"genus": "/api/v1/genus/rumex"
}
},
{
"id": 10530,
"common_name": "Oxeye daisy",
"slug": "leucanthemum-vulgare",
"scientific_name": "Leucanthemum vulgare",
"year": 1779,
"bibliography": "Fl. Franç. 2: 137 (1779)",
"author": "Lam.",
"status": "accepted",
"rank": "species",
"family_common_name": "Aster family",
"genus_id": 390,
"image_url": "https://bs.plantnet.org/image/o/cc03c870f80172d0faf20d14ff8291d050afd13f",
"synonyms": [
"Tanacetum leucanthemum",
"Chrysanthemum leucanthemum f. tubiflorum",
"Leucanthemum leucanthemum",
"Pontia vulgaris",
"Chrysanthemum trapezuntinum",
"Matricaria leucanthemum",
"Chrysanthemum leucanthemum",
"Pyrethrum leucanthemum",
"Chrysanthemum leucanthemum var. silvaticum",
"Chamaemelum leucanthemum"
],
"genus": "Leucanthemum",
"family": "Asteraceae",
"links": {
"self": "/api/v1/species/leucanthemum-vulgare",
"plant": "/api/v1/plants/leucanthemum-vulgare",
"genus": "/api/v1/genus/leucanthemum"
}
},
{
"id": 24460,
"common_name": "Felonherb",
"slug": "artemisia-vulgaris",
"scientific_name": "Artemisia vulgaris",
"year": 1753,
"bibliography": "Sp. Pl.: 848 (1753)",
"author": "L.",
"status": "accepted",
"rank": "species",
"family_common_name": "Aster family",
"genus_id": 58,
"image_url": "https://bs.plantnet.org/image/o/066b219abe419d2cc635855c06df8f5850497095",
"synonyms": [
"Artemisia vulgaris var. typica",
"Artemisia vulgaris subsp. typica"
],
"genus": "Artemisia",
"family": "Asteraceae",
"links": {
"self": "/api/v1/species/artemisia-vulgaris",
"plant": "/api/v1/plants/artemisia-vulgaris",
"genus": "/api/v1/genus/artemisia"
}
}
],
"links": {
"self": "/api/v1/plants?zone_id=FLA",
"first": "/api/v1/plants?page=1&zone_id=FLA",
"next": "/api/v1/plants?page=2&zone_id=FLA",
"last": "/api/v1/plants?page=207&zone_id=FLA"
},
"meta": {
"total": 4122
}
}